Pipeline/pipeline.vcd
$date
	Wed Jan 20 16:04:18 2021
$end
$version
	Icarus Verilog
$end
$timescale
	1ps
$end
$scope module pipeline $end
$var wire 1 ! zero $end
$var wire 2 " wb_ctlout_pipe [1:0] $end
$var wire 2 # wb_ctlout [1:0] $end
$var wire 32 $ s_extendout [31:0] $end
$var wire 1 % regdst $end
$var wire 32 & read_data [31:0] $end
$var wire 32 ' rdata2out_pipe [31:0] $end
$var wire 32 ( rdata2out [31:0] $end
$var wire 32 ) rdata1out [31:0] $end
$var wire 32 * npcout [31:0] $end
$var wire 1 + memwrite $end
$var wire 1 , memread $end
$var wire 32 - mem_alu_result [31:0] $end
$var wire 3 . m_ctlout [2:0] $end
$var wire 5 / instrout_2016 [4:0] $end
$var wire 5 0 instrout_1511 [4:0] $end
$var wire 5 1 five_bit_muxout [4:0] $end
$var wire 1 2 branch $end
$var wire 1 3 alusrc $end
$var wire 2 4 aluop [1:0] $end
$var wire 32 5 alu_result [31:0] $end
$var wire 32 6 WB_mux_writedata [31:0] $end
$var wire 1 7 MEM_WB_regwrite $end
$var wire 5 8 MEM_WB_rd [4:0] $end
$var wire 1 9 MEM_WB_memtoreg $end
$var wire 32 : IF_ID_npc [31:0] $end
$var wire 32 ; IF_ID_instr [31:0] $end
$var wire 1 < EX_MEM_PCSrc $end
$var wire 32 = EX_MEM_NPC [31:0] $end
$scope module EXECUTE1 $end
$var wire 1 ! zero $end
$var wire 2 > wb_ctlout [1:0] $end
$var wire 2 ? wb_ctl [1:0] $end
$var wire 32 @ s_extendout [31:0] $end
$var wire 1 % regdst $end
$var wire 32 A rdata2out [31:0] $end
$var wire 32 B rdata2 [31:0] $end
$var wire 32 C rdata1 [31:0] $end
$var wire 32 D npcout [31:0] $end
$var wire 5 E muxout [4:0] $end
$var wire 1 + memwrite $end
$var wire 1 , memread $end
$var wire 3 F m_ctl [2:0] $end
$var wire 5 G instrout_2016 [4:0] $end
$var wire 5 H instrout_1511 [4:0] $end
$var wire 5 I five_bit_muxout [4:0] $end
$var wire 3 J control [2:0] $end
$var wire 1 2 branch $end
$var wire 32 K b [31:0] $end
$var wire 1 L aluzero $end
$var wire 1 3 alusrc $end
$var wire 32 M aluout [31:0] $end
$var wire 2 N aluop [1:0] $end
$var wire 32 O alu_result [31:0] $end
$var wire 32 P adder_out [31:0] $end
$var wire 32 Q add_result [31:0] $end
$scope module add $end
$var wire 32 R add_out [31:0] $end
$var wire 32 S add_in2 [31:0] $end
$var wire 32 T add_in1 [31:0] $end
$upscope $end
$scope module alu $end
$var wire 1 U sign_mismatch $end
$var wire 1 L zero $end
$var wire 3 V control [2:0] $end
$var wire 32 W b [31:0] $end
$var wire 32 X a [31:0] $end
$var reg 32 Y result [31:0] $end
$upscope $end
$scope module alu_control $end
$var wire 6 Z funct [5:0] $end
$var wire 2 [ aluop [1:0] $end
$var reg 3 \ select [2:0] $end
$upscope $end
$scope module bottom_mux2 $end
$var wire 5 ] y [4:0] $end
$var wire 1 % sel $end
$var wire 5 ^ b [4:0] $end
$var wire 5 _ a [4:0] $end
$upscope $end
$scope module ex_mem $end
$var wire 32 ` adder_out [31:0] $end
$var wire 32 a aluout [31:0] $end
$var wire 1 L aluzero $end
$var wire 5 b muxout [4:0] $end
$var wire 32 c readdat2 [31:0] $end
$var wire 2 d ctlwb_out [1:0] $end
$var wire 3 e ctlm_out [2:0] $end
$var reg 32 f add_result [31:0] $end
$var reg 32 g alu_result [31:0] $end
$var reg 1 2 branch $end
$var reg 5 h five_bit_muxout [4:0] $end
$var reg 1 , memread $end
$var reg 1 + memwrite $end
$var reg 32 i rdata2out [31:0] $end
$var reg 2 j wb_ctlout [1:0] $end
$var reg 1 ! zero $end
$upscope $end
$scope module mux2 $end
$var wire 32 k y [31:0] $end
$var wire 1 3 sel $end
$var wire 32 l b [31:0] $end
$var wire 32 m a [31:0] $end
$upscope $end
$upscope $end
$scope module IDECODE1 $end
$var wire 2 n wb_ctlout [1:0] $end
$var wire 32 o signext_out [31:0] $end
$var wire 32 p s_extendout [31:0] $end
$var wire 1 % regdst $end
$var wire 32 q readdat2 [31:0] $end
$var wire 32 r readdat1 [31:0] $end
$var wire 32 s rdata2out [31:0] $end
$var wire 32 t rdata1out [31:0] $end
$var wire 32 u npcout [31:0] $end
$var wire 3 v m_ctlout [2:0] $end
$var wire 5 w instrout_2016 [4:0] $end
$var wire 5 x instrout_1511 [4:0] $end
$var wire 2 y ctlwb_out [1:0] $end
$var wire 3 z ctlm_out [2:0] $end
$var wire 4 { ctlex_out [3:0] $end
$var wire 1 3 alusrc $end
$var wire 2 | aluop [1:0] $end
$var wire 32 } WB_mux_writedata [31:0] $end
$var wire 1 7 MEM_WB_regwrite $end
$var wire 5 ~ MEM_WB_rd [4:0] $end
$var wire 32 !" IF_ID_npcout [31:0] $end
$var wire 32 "" IF_ID_instrout [31:0] $end
$scope module control2 $end
$var wire 6 #" opcode [5:0] $end
$var reg 4 $" EX [3:0] $end
$var reg 3 %" M [2:0] $end
$var reg 2 &" WB [1:0] $end
$upscope $end
$scope module id_ex2 $end
$var wire 4 '" ctlex_out [3:0] $end
$var wire 3 (" ctlm_out [2:0] $end
$var wire 2 )" ctlwb_out [1:0] $end
$var wire 5 *" instr_1511 [4:0] $end
$var wire 5 +" instr_2016 [4:0] $end
$var wire 32 ," signext_out [31:0] $end
$var wire 32 -" readdat2 [31:0] $end
$var wire 32 ." readdat1 [31:0] $end
$var wire 32 /" npc [31:0] $end
$var reg 2 0" aluop [1:0] $end
$var reg 1 3 alusrc $end
$var reg 5 1" instrout_1511 [4:0] $end
$var reg 5 2" instrout_2016 [4:0] $end
$var reg 3 3" m_ctlout [2:0] $end
$var reg 32 4" npcout [31:0] $end
$var reg 32 5" rdata1out [31:0] $end
$var reg 32 6" rdata2out [31:0] $end
$var reg 1 % regdst $end
$var reg 32 7" s_extendout [31:0] $end
$var reg 2 8" wb_ctlout [1:0] $end
$upscope $end
$scope module register2 $end
$var wire 5 9" rs [4:0] $end
$var wire 5 :" rt [4:0] $end
$var wire 32 ;" writedata [31:0] $end
$var wire 1 7 regwrite $end
$var wire 5 <" rd [4:0] $end
$var reg 32 =" A [31:0] $end
$var reg 32 >" B [31:0] $end
$var integer 32 ?" i [31:0] $end
$upscope $end
$scope module s_extend2 $end
$var wire 16 @" nextend [15:0] $end
$var reg 32 A" extend [31:0] $end
$upscope $end
$upscope $end
$scope module MEMORY1 $end
$var wire 32 B" alu_result [31:0] $end
$var wire 1 2 branch $end
$var wire 5 C" five_bit_muxout [4:0] $end
$var wire 1 , memread $end
$var wire 1 + memwrite $end
$var wire 32 D" rdata2out [31:0] $end
$var wire 2 E" wb_ctlout [1:0] $end
$var wire 1 ! zero $end
$var wire 32 F" read_data_in [31:0] $end
$var wire 32 G" read_data [31:0] $end
$var wire 5 H" mem_write_reg [4:0] $end
$var wire 32 I" mem_alu_result [31:0] $end
$var wire 1 7 MEM_WB_regwrite $end
$var wire 1 9 MEM_WB_memtoreg $end
$var wire 1 < MEM_PCSrc $end
$scope module AND_4 $end
$var wire 1 < PCSrc $end
$var wire 1 2 membranch $end
$var wire 1 ! zero $end
$upscope $end
$scope module data_memory4 $end
$var wire 32 J" addr [31:0] $end
$var wire 1 , memread $end
$var wire 1 + memwrite $end
$var wire 32 K" write_data [31:0] $end
$var reg 32 L" read_data [31:0] $end
$var integer 32 M" i [31:0] $end
$upscope $end
$scope module mem_wb4 $end
$var wire 32 N" alu_result_in [31:0] $end
$var wire 2 O" control_wb_in [1:0] $end
$var wire 32 P" read_data_in [31:0] $end
$var wire 5 Q" write_reg_in [4:0] $end
$var reg 32 R" mem_alu_result [31:0] $end
$var reg 5 S" mem_write_reg [4:0] $end
$var reg 1 9 memtoreg $end
$var reg 32 T" read_data [31:0] $end
$var reg 1 7 regwrite $end
$upscope $end
$upscope $end
$scope module ifetch1 $end
$var wire 32 U" EX_MEM_NPC [31:0] $end
$var wire 1 < EX_MEM_PCSrc $end
$var wire 32 V" npc_mux [31:0] $end
$var wire 32 W" npc [31:0] $end
$var wire 32 X" dataout [31:0] $end
$var wire 32 Y" PC [31:0] $end
$var wire 32 Z" IF_ID_npc [31:0] $end
$var wire 32 [" IF_ID_instr [31:0] $end
$scope module if_id1 $end
$var wire 32 \" npc [31:0] $end
$var wire 32 ]" instr [31:0] $end
$var reg 32 ^" instrout [31:0] $end
$var reg 32 _" npcout [31:0] $end
$upscope $end
$scope module incrementer1 $end
$var wire 32 `" pcout [31:0] $end
$var wire 32 a" pcin [31:0] $end
$upscope $end
$scope module memory1 $end
$var wire 32 b" addr [31:0] $end
$var reg 32 c" data [31:0] $end
$var integer 32 d" i [31:0] $end
$upscope $end
$scope module mux1 $end
$var wire 32 e" a [31:0] $end
$var wire 32 f" b [31:0] $end
$var wire 1 < sel $end
$var wire 32 g" y [31:0] $end
$upscope $end
$scope module pc_mod1 $end
$var wire 32 h" npc [31:0] $end
$var reg 32 i" PC [31:0] $end
$upscope $end
$upscope $end
$scope module writeback1 $end
$var wire 1 9 MEM_WB_memtoreg $end
$var wire 32 j" mem_alu_result [31:0] $end
$var wire 32 k" read_data [31:0] $end
$var wire 32 l" WB_mux_writedata [31:0] $end
$scope module mux3 $end
$var wire 32 m" a [31:0] $end
$var wire 32 n" b [31:0] $end
$var wire 1 9 sel $end
$var wire 32 o" y [31:0] $end
$upscope $end
$upscope $end
$upscope $end
$enddefinitions $end
#0
$dumpvars
b0 o"
b0 n"
b0 m"
b0 l"
b0 k"
b0 j"
b0 i"
b1 h"
b1 g"
b1 f"
b0 e"
b11000 d"
b10001100000000010000000000000001 c"
b0 b"
b0 a"
b1 `"
b0 _"
b0 ^"
b10001100000000010000000000000001 ]"
b1 \"
b0 ["
b0 Z"
b0 Y"
b10001100000000010000000000000001 X"
b1 W"
b1 V"
b0 U"
b0 T"
b0 S"
b0 R"
b0 Q"
b0 P"
b0 O"
b0 N"
b1010 M"
b0 L"
b0 K"
b0 J"
b0 I"
b0 H"
b0 G"
b0 F"
b0 E"
b0 D"
b0 C"
b0 B"
b0 A"
b0 @"
b1001 ?"
b0 >"
b0 ="
b0 <"
b0 ;"
b0 :"
b0 9"
b0 8"
b0 7"
b0 6"
b0 5"
b0 4"
b0 3"
b0 2"
b0 1"
b0 0"
b0 /"
b0 ."
b0 -"
b0 ,"
b0 +"
b0 *"
b10 )"
b0 ("
b1100 '"
b10 &"
b0 %"
b1100 $"
b0 #"
b0 ""
b0 !"
b0 ~
b0 }
b0 |
b1100 {
b0 z
b10 y
b0 x
b0 w
b0 v
b0 u
b0 t
b0 s
b0 r
b0 q
b0 p
b0 o
b0 n
b0 m
b0 l
b0 k
b0 j
b0 i
b0 h
b0 g
b0 f
b0 e
b0 d
b0 c
b0 b
b0 a
b0 `
b0 _
b0 ^
b0 ]
b10 \
b0 [
b0 Z
b0 Y
b0 X
b0 W
b10 V
0U
b0 T
b0 S
b0 R
b0 Q
b0 P
b0 O
b0 N
b0 M
1L
b0 K
b10 J
b0 I
b0 H
b0 G
b0 F
b0 E
b0 D
b0 C
b0 B
b0 A
b0 @
b0 ?
b0 >
b0 =
0<
b0 ;
b0 :
09
b0 8
07
b0 6
b0 5
b0 4
03
02
b0 1
b0 0
b0 /
b0 .
b0 -
0,
0+
b0 *
b0 )
b0 (
b0 '
b0 &
0%
b0 $
b0 #
b0 "
0!
$end
#1000
xL
bx M
bx Y
bx a
b1 o
b1 ,"
b1 A"
b11 y
b11 &"
b11 )"
b10 z
b10 %"
b10 ("
b1 {
b1 $"
b1 '"
b10001100000000100000000000000010 X"
b10001100000000100000000000000010 ]"
b10001100000000100000000000000010 c"
b11 J
b11 V
b11 \
b10 V"
b10 g"
b10 h"
b1 +"
b1 @"
b1 :"
b100011 #"
b10 W"
b10 \"
b10 `"
b10 f"
b1 Y"
b1 a"
b1 b"
b1 i"
b10 4
b10 N
b10 [
b10 |
b10 0"
1%
b10 #
b10 ?
b10 d
b10 n
b10 8"
b1 :
b1 !"
b1 /"
b1 Z"
b1 _"
b10001100000000010000000000000001 ;
b10001100000000010000000000000001 ""
b10001100000000010000000000000001 ["
b10001100000000010000000000000001 ^"
1!
#2000
0L
b1 M
b1 Y
b1 a
b10 o
b10 ,"
b10 A"
b10001100000000110000000000000011 X"
b10001100000000110000000000000011 ]"
b10001100000000110000000000000011 c"
b10 J
b10 V
b10 \
b11 V"
b11 g"
b11 h"
b10 +"
b10 @"
b10 :"
b1 Z
b1 K
b1 W
b1 k
b1 E
b1 ]
b1 b
b11 W"
b11 \"
b11 `"
b11 f"
b10 Y"
b10 a"
b10 b"
b10 i"
b10 :
b10 !"
b10 /"
b10 Z"
b10 _"
b10001100000000100000000000000010 ;
b10001100000000100000000000000010 ""
b10001100000000100000000000000010 ["
b10001100000000100000000000000010 ^"
bx 5
bx O
bx g
bx B"
bx J"
bx N"
x!
b10 "
b10 >
b10 j
b10 E"
b10 O"
b1 /
b1 G
b1 ^
b1 w
b1 2"
b1 $
b1 @
b1 S
b1 m
b1 p
b1 7"
b10 P
b10 R
b10 `
b1 *
b1 D
b1 T
b1 u
b1 4"
13
b0 4
b0 N
b0 [
b0 |
b0 0"
0%
b10 .
b10 F
b10 e
b10 v
b10 3"
b11 #
b11 ?
b11 d
b11 n
b11 8"
#3000
b11 o
b11 ,"
b11 A"
b10000000000000000000000000000000 X"
b10000000000000000000000000000000 ]"
b10000000000000000000000000000000 c"
b1 F"
b1 L"
b1 P"
b10 M
b10 Y
b10 a
b100 V"
b100 g"
b100 h"
b11 +"
b11 @"
b11 :"
b10 E
b10 ]
b10 b
b10 K
b10 W
b10 k
b10 Z
bx 6
bx }
bx ;"
bx l"
bx o"
b100 W"
b100 \"
b100 `"
b100 f"
b11 Y"
b11 a"
b11 b"
b11 i"
b11 :
b11 !"
b11 /"
b11 Z"
b11 _"
b10001100000000110000000000000011 ;
b10001100000000110000000000000011 ""
b10001100000000110000000000000011 ["
b10001100000000110000000000000011 ^"
b10 /
b10 G
b10 ^
b10 w
b10 2"
b10 $
b10 @
b10 S
b10 m
b10 p
b10 7"
b100 P
b100 R
b100 `
b10 *
b10 D
b10 T
b10 u
b10 4"
bx -
bx I"
bx R"
bx j"
bx n"
17
b1 1
b1 I
b1 h
b1 C"
b1 Q"
b1 5
b1 O
b1 g
b1 B"
b1 J"
b1 N"
0!
b10 =
b10 Q
b10 f
b10 U"
b10 e"
1,
b11 "
b11 >
b11 j
b11 E"
b11 O"
#4000
b0 o
b0 ,"
b0 A"
b0 y
b0 &"
b0 )"
b0 z
b0 %"
b0 ("
b0 {
b0 $"
b0 '"
b10 F"
b10 L"
b10 P"
b11 M
b11 Y
b11 a
b101 V"
b101 g"
b101 h"
b0 +"
b0 @"
b0 :"
b100000 #"
b11 E
b11 ]
b11 b
b11 K
b11 W
b11 k
b11 Z
b1 6
b1 }
b1 ;"
b1 l"
b1 o"
b101 W"
b101 \"
b101 `"
b101 f"
b100 Y"
b100 a"
b100 b"
b100 i"
b100 :
b100 !"
b100 /"
b100 Z"
b100 _"
b10000000000000000000000000000000 ;
b10000000000000000000000000000000 ""
b10000000000000000000000000000000 ["
b10000000000000000000000000000000 ^"
b11 /
b11 G
b11 ^
b11 w
b11 2"
b11 $
b11 @
b11 S
b11 m
b11 p
b11 7"
b110 P
b110 R
b110 `
b11 *
b11 D
b11 T
b11 u
b11 4"
b10 1
b10 I
b10 h
b10 C"
b10 Q"
b10 5
b10 O
b10 g
b10 B"
b10 J"
b10 N"
b100 =
b100 Q
b100 f
b100 U"
b100 e"
b1 8
b1 ~
b1 <"
b1 H"
b1 S"
b1 -
b1 I"
b1 R"
b1 j"
b1 n"
b1 &
b1 G"
b1 T"
b1 k"
b1 m"
19
#5000
b1000100000100000100000 X"
b1000100000100000100000 ]"
b1000100000100000100000 c"
b11 F"
b11 L"
b11 P"
1L
b0 M
b0 Y
b0 a
b110 V"
b110 g"
b110 h"
b0 E
b0 ]
b0 b
b0 Z
b0 K
b0 W
b0 k
b10 6
b10 }
b10 ;"
b10 l"
b10 o"
b110 W"
b110 \"
b110 `"
b110 f"
b101 Y"
b101 a"
b101 b"
b101 i"
b101 :
b101 !"
b101 /"
b101 Z"
b101 _"
b0 /
b0 G
b0 ^
b0 w
b0 2"
b0 $
b0 @
b0 S
b0 m
b0 p
b0 7"
b100 P
b100 R
b100 `
b100 *
b100 D
b100 T
b100 u
b100 4"
03
b0 .
b0 F
b0 e
b0 v
b0 3"
b0 #
b0 ?
b0 d
b0 n
b0 8"
b11 1
b11 I
b11 h
b11 C"
b11 Q"
b11 5
b11 O
b11 g
b11 B"
b11 J"
b11 N"
b110 =
b110 Q
b110 f
b110 U"
b110 e"
b10 8
b10 ~
b10 <"
b10 H"
b10 S"
b10 -
b10 I"
b10 R"
b10 j"
b10 n"
b10 &
b10 G"
b10 T"
b10 k"
b10 m"
#6000
b100000100000 o
b100000100000 ,"
b100000100000 A"
b10 q
b10 -"
b10 >"
b1 r
b1 ."
b1 ="
b10 y
b10 &"
b10 )"
b1100 {
b1100 $"
b1100 '"
b10000000000000000000000000000000 X"
b10000000000000000000000000000000 ]"
b10000000000000000000000000000000 c"
b111 V"
b111 g"
b111 h"
b1 *"
b10 +"
b100000100000 @"
b10 :"
b1 9"
b0 #"
b11 6
b11 }
b11 ;"
b11 l"
b11 o"
b111 W"
b111 \"
b111 `"
b111 f"
b110 Y"
b110 a"
b110 b"
b110 i"
b110 :
b110 !"
b110 /"
b110 Z"
b110 _"
b1000100000100000100000 ;
b1000100000100000100000 ""
b1000100000100000100000 ["
b1000100000100000100000 ^"
b101 P
b101 R
b101 `
b101 *
b101 D
b101 T
b101 u
b101 4"
b0 1
b0 I
b0 h
b0 C"
b0 Q"
b0 5
b0 O
b0 g
b0 B"
b0 J"
b0 N"
1!
b100 =
b100 Q
b100 f
b100 U"
b100 e"
0,
b0 "
b0 >
b0 j
b0 E"
b0 O"
b11 8
b11 ~
b11 <"
b11 H"
b11 S"
b11 -
b11 I"
b11 R"
b11 j"
b11 n"
b11 &
b11 G"
b11 T"
b11 k"
b11 m"
#7000
b0 o
b0 ,"
b0 A"
b0 y
b0 &"
b0 )"
b0 {
b0 $"
b0 '"
b0 q
b0 -"
b0 >"
b0 r
b0 ."
b0 ="
b10 J
b10 V
b10 \
0L
b1000 V"
b1000 g"
b1000 h"
b0 *"
b0 +"
b0 @"
b0 :"
b0 9"
b100000 #"
b100000 Z
b10 K
b10 W
b10 k
b11 M
b11 Y
b11 a
b1 E
b1 ]
b1 b
b0 6
b0 }
b0 ;"
b0 l"
b0 o"
b1000 W"
b1000 \"
b1000 `"
b1000 f"
b111 Y"
b111 a"
b111 b"
b111 i"
b111 :
b111 !"
b111 /"
b111 Z"
b111 _"
b10000000000000000000000000000000 ;
b10000000000000000000000000000000 ""
b10000000000000000000000000000000 ["
b10000000000000000000000000000000 ^"
b1 0
b1 H
b1 _
b1 x
b1 1"
b10 /
b10 G
b10 ^
b10 w
b10 2"
b100000100000 $
b100000100000 @
b100000100000 S
b100000100000 m
b100000100000 p
b100000100000 7"
b10 (
b10 B
b10 c
b10 l
b10 s
b10 6"
b1 )
b1 C
b1 X
b1 t
b1 5"
b100000100110 P
b100000100110 R
b100000100110 `
b110 *
b110 D
b110 T
b110 u
b110 4"
b10 4
b10 N
b10 [
b10 |
b10 0"
1%
b10 #
b10 ?
b10 d
b10 n
b10 8"
b101 =
b101 Q
b101 f
b101 U"
b101 e"
b0 8
b0 ~
b0 <"
b0 H"
b0 S"
b0 -
b0 I"
b0 R"
b0 j"
b0 n"
09
07
#8000
1L
b1001 V"
b1001 g"
b1001 h"
b0 Z
b0 K
b0 W
b0 k
b0 M
b0 Y
b0 a
b0 E
b0 ]
b0 b
b1001 W"
b1001 \"
b1001 `"
b1001 f"
b1000 Y"
b1000 a"
b1000 b"
b1000 i"
b1000 :
b1000 !"
b1000 /"
b1000 Z"
b1000 _"
b0 0
b0 H
b0 _
b0 x
b0 1"
b0 /
b0 G
b0 ^
b0 w
b0 2"
b0 $
b0 @
b0 S
b0 m
b0 p
b0 7"
b0 (
b0 B
b0 c
b0 l
b0 s
b0 6"
b0 )
b0 C
b0 X
b0 t
b0 5"
b111 P
b111 R
b111 `
b111 *
b111 D
b111 T
b111 u
b111 4"
b0 4
b0 N
b0 [
b0 |
b0 0"
0%
b0 #
b0 ?
b0 d
b0 n
b0 8"
b1 1
b1 I
b1 h
b1 C"
b1 Q"
b10 '
b10 A
b10 i
b10 D"
b10 K"
b11 5
b11 O
b11 g
b11 B"
b11 J"
b11 N"
0!
b100000100110 =
b100000100110 Q
b100000100110 f
b100000100110 U"
b100000100110 e"
b10 "
b10 >
b10 j
b10 E"
b10 O"
#9000
b1000110000100000100000 X"
b1000110000100000100000 ]"
b1000110000100000100000 c"
b1010 V"
b1010 g"
b1010 h"
b11 6
b11 }
b11 ;"
b11 l"
b11 o"
b1010 W"
b1010 \"
b1010 `"
b1010 f"
b1001 Y"
b1001 a"
b1001 b"
b1001 i"
b1001 :
b1001 !"
b1001 /"
b1001 Z"
b1001 _"
b1000 P
b1000 R
b1000 `
b1000 *
b1000 D
b1000 T
b1000 u
b1000 4"
b0 1
b0 I
b0 h
b0 C"
b0 Q"
b0 '
b0 A
b0 i
b0 D"
b0 K"
b0 5
b0 O
b0 g
b0 B"
b0 J"
b0 N"
1!
b111 =
b111 Q
b111 f
b111 U"
b111 e"
b0 "
b0 >
b0 j
b0 E"
b0 O"
b1 8
b1 ~
b1 <"
b1 H"
b1 S"
b11 -
b11 I"
b11 R"
b11 j"
b11 n"
17
#10000
b100000100000 o
b100000100000 ,"
b100000100000 A"
b10 y
b10 &"
b10 )"
b1100 {
b1100 $"
b1100 '"
b11 q
b11 -"
b11 >"
b11 r
b11 ."
b11 ="
b10000000000000000000000000000000 X"
b10000000000000000000000000000000 ]"
b10000000000000000000000000000000 c"
b1011 V"
b1011 g"
b1011 h"
b1 *"
b11 +"
b100000100000 @"
b11 :"
b1 9"
b0 #"
b0 6
b0 }
b0 ;"
b0 l"
b0 o"
b1011 W"
b1011 \"
b1011 `"
b1011 f"
b1010 Y"
b1010 a"
b1010 b"
b1010 i"
b1010 :
b1010 !"
b1010 /"
b1010 Z"
b1010 _"
b1000110000100000100000 ;
b1000110000100000100000 ""
b1000110000100000100000 ["
b1000110000100000100000 ^"
b1001 P
b1001 R
b1001 `
b1001 *
b1001 D
b1001 T
b1001 u
b1001 4"
b1000 =
b1000 Q
b1000 f
b1000 U"
b1000 e"
b0 8
b0 ~
b0 <"
b0 H"
b0 S"
b0 -
b0 I"
b0 R"
b0 j"
b0 n"
07
#11000
b0 o
b0 ,"
b0 A"
b0 q
b0 -"
b0 >"
b0 r
b0 ."
b0 ="
b0 y
b0 &"
b0 )"
b0 {
b0 $"
b0 '"
b10 J
b10 V
b10 \
0L
b1100 V"
b1100 g"
b1100 h"
b0 *"
b0 +"
b0 @"
b0 :"
b0 9"
b100000 #"
b100000 Z
b11 K
b11 W
b11 k
b110 M
b110 Y
b110 a
b1 E
b1 ]
b1 b
b1100 W"
b1100 \"
b1100 `"
b1100 f"
b1011 Y"
b1011 a"
b1011 b"
b1011 i"
b1011 :
b1011 !"
b1011 /"
b1011 Z"
b1011 _"
b10000000000000000000000000000000 ;
b10000000000000000000000000000000 ""
b10000000000000000000000000000000 ["
b10000000000000000000000000000000 ^"
b1 0
b1 H
b1 _
b1 x
b1 1"
b11 /
b11 G
b11 ^
b11 w
b11 2"
b100000100000 $
b100000100000 @
b100000100000 S
b100000100000 m
b100000100000 p
b100000100000 7"
b11 (
b11 B
b11 c
b11 l
b11 s
b11 6"
b11 )
b11 C
b11 X
b11 t
b11 5"
b100000101010 P
b100000101010 R
b100000101010 `
b1010 *
b1010 D
b1010 T
b1010 u
b1010 4"
b10 4
b10 N
b10 [
b10 |
b10 0"
1%
b10 #
b10 ?
b10 d
b10 n
b10 8"
b1001 =
b1001 Q
b1001 f
b1001 U"
b1001 e"
#12000
1L
b1101 V"
b1101 g"
b1101 h"
b0 Z
b0 K
b0 W
b0 k
b0 M
b0 Y
b0 a
b0 E
b0 ]
b0 b
b1101 W"
b1101 \"
b1101 `"
b1101 f"
b1100 Y"
b1100 a"
b1100 b"
b1100 i"
b1100 :
b1100 !"
b1100 /"
b1100 Z"
b1100 _"
b0 0
b0 H
b0 _
b0 x
b0 1"
b0 /
b0 G
b0 ^
b0 w
b0 2"
b0 $
b0 @
b0 S
b0 m
b0 p
b0 7"
b0 (
b0 B
b0 c
b0 l
b0 s
b0 6"
b0 )
b0 C
b0 X
b0 t
b0 5"
b1011 P
b1011 R
b1011 `
b1011 *
b1011 D
b1011 T
b1011 u
b1011 4"
b0 4
b0 N
b0 [
b0 |
b0 0"
0%
b0 #
b0 ?
b0 d
b0 n
b0 8"
b1 1
b1 I
b1 h
b1 C"
b1 Q"
b11 '
b11 A
b11 i
b11 D"
b11 K"
b110 5
b110 O
b110 g
b110 B"
b110 J"
b110 N"
0!
b100000101010 =
b100000101010 Q
b100000101010 f
b100000101010 U"
b100000101010 e"
b10 "
b10 >
b10 j
b10 E"
b10 O"
#13000
b1000010000100000100000 X"
b1000010000100000100000 ]"
b1000010000100000100000 c"
b1110 V"
b1110 g"
b1110 h"
b110 6
b110 }
b110 ;"
b110 l"
b110 o"
b1110 W"
b1110 \"
b1110 `"
b1110 f"
b1101 Y"
b1101 a"
b1101 b"
b1101 i"
b1101 :
b1101 !"
b1101 /"
b1101 Z"
b1101 _"
b1100 P
b1100 R
b1100 `
b1100 *
b1100 D
b1100 T
b1100 u
b1100 4"
b0 1
b0 I
b0 h
b0 C"
b0 Q"
b0 '
b0 A
b0 i
b0 D"
b0 K"
b0 5
b0 O
b0 g
b0 B"
b0 J"
b0 N"
1!
b1011 =
b1011 Q
b1011 f
b1011 U"
b1011 e"
b0 "
b0 >
b0 j
b0 E"
b0 O"
b1 8
b1 ~
b1 <"
b1 H"
b1 S"
b110 -
b110 I"
b110 R"
b110 j"
b110 n"
17
#14000
b100000100000 o
b100000100000 ,"
b100000100000 A"
b10 y
b10 &"
b10 )"
b1100 {
b1100 $"
b1100 '"
b110 q
b110 -"
b110 >"
b110 r
b110 ."
b110 ="
b10000000000000000000000000000000 X"
b10000000000000000000000000000000 ]"
b10000000000000000000000000000000 c"
b1111 V"
b1111 g"
b1111 h"
b1 *"
b1 +"
b100000100000 @"
b1 :"
b1 9"
b0 #"
b0 6
b0 }
b0 ;"
b0 l"
b0 o"
b1111 W"
b1111 \"
b1111 `"
b1111 f"
b1110 Y"
b1110 a"
b1110 b"
b1110 i"
b1110 :
b1110 !"
b1110 /"
b1110 Z"
b1110 _"
b1000010000100000100000 ;
b1000010000100000100000 ""
b1000010000100000100000 ["
b1000010000100000100000 ^"
b1101 P
b1101 R
b1101 `
b1101 *
b1101 D
b1101 T
b1101 u
b1101 4"
b1100 =
b1100 Q
b1100 f
b1100 U"
b1100 e"
b0 8
b0 ~
b0 <"
b0 H"
b0 S"
b0 -
b0 I"
b0 R"
b0 j"
b0 n"
07
#15000
b0 o
b0 ,"
b0 A"
b0 q
b0 -"
b0 >"
b0 r
b0 ."
b0 ="
b0 y
b0 &"
b0 )"
b0 {
b0 $"
b0 '"
b10 J
b10 V
b10 \
0L
b10000 V"
b10000 g"
b10000 h"
b0 *"
b0 +"
b0 @"
b0 :"
b0 9"
b100000 #"
b100000 Z
b110 K
b110 W
b110 k
b1100 M
b1100 Y
b1100 a
b1 E
b1 ]
b1 b
b10000 W"
b10000 \"
b10000 `"
b10000 f"
b1111 Y"
b1111 a"
b1111 b"
b1111 i"
b1111 :
b1111 !"
b1111 /"
b1111 Z"
b1111 _"
b10000000000000000000000000000000 ;
b10000000000000000000000000000000 ""
b10000000000000000000000000000000 ["
b10000000000000000000000000000000 ^"
b1 0
b1 H
b1 _
b1 x
b1 1"
b1 /
b1 G
b1 ^
b1 w
b1 2"
b100000100000 $
b100000100000 @
b100000100000 S
b100000100000 m
b100000100000 p
b100000100000 7"
b110 (
b110 B
b110 c
b110 l
b110 s
b110 6"
b110 )
b110 C
b110 X
b110 t
b110 5"
b100000101110 P
b100000101110 R
b100000101110 `
b1110 *
b1110 D
b1110 T
b1110 u
b1110 4"
b10 4
b10 N
b10 [
b10 |
b10 0"
1%
b10 #
b10 ?
b10 d
b10 n
b10 8"
b1101 =
b1101 Q
b1101 f
b1101 U"
b1101 e"
#16000
1L
b10001 V"
b10001 g"
b10001 h"
b0 Z
b0 K
b0 W
b0 k
b0 M
b0 Y
b0 a
b0 E
b0 ]
b0 b
b10001 W"
b10001 \"
b10001 `"
b10001 f"
b10000 Y"
b10000 a"
b10000 b"
b10000 i"
b10000 :
b10000 !"
b10000 /"
b10000 Z"
b10000 _"
b0 0
b0 H
b0 _
b0 x
b0 1"
b0 /
b0 G
b0 ^
b0 w
b0 2"
b0 $
b0 @
b0 S
b0 m
b0 p
b0 7"
b0 (
b0 B
b0 c
b0 l
b0 s
b0 6"
b0 )
b0 C
b0 X
b0 t
b0 5"
b1111 P
b1111 R
b1111 `
b1111 *
b1111 D
b1111 T
b1111 u
b1111 4"
b0 4
b0 N
b0 [
b0 |
b0 0"
0%
b0 #
b0 ?
b0 d
b0 n
b0 8"
b1 1
b1 I
b1 h
b1 C"
b1 Q"
b110 '
b110 A
b110 i
b110 D"
b110 K"
b1100 5
b1100 O
b1100 g
b1100 B"
b1100 J"
b1100 N"
0!
b100000101110 =
b100000101110 Q
b100000101110 f
b100000101110 U"
b100000101110 e"
b10 "
b10 >
b10 j
b10 E"
b10 O"
