Pipeline/pipeline.vcd
$date
	Wed Jan 20 13:58:36 2021
$end
$version
	Icarus Verilog
$end
$timescale
	1ps
$end
$scope module pipeline $end
$var wire 1 ! zero $end
$var wire 2 " wb_ctlout_pipe [1:0] $end
$var wire 2 # wb_ctlout [1:0] $end
$var wire 32 $ s_extendout [31:0] $end
$var wire 1 % regdst $end
$var wire 32 & read_data [31:0] $end
$var wire 32 ' rdata2out_pipe [31:0] $end
$var wire 32 ( rdata2out [31:0] $end
$var wire 32 ) rdata1out [31:0] $end
$var wire 32 * npcout [31:0] $end
$var wire 1 + memwrite $end
$var wire 1 , memread $end
$var wire 32 - mem_alu_result [31:0] $end
$var wire 3 . m_ctlout [2:0] $end
$var wire 5 / instrout_2016 [4:0] $end
$var wire 5 0 instrout_1511 [4:0] $end
$var wire 5 1 five_bit_muxout [4:0] $end
$var wire 1 2 branch $end
$var wire 1 3 alusrc $end
$var wire 2 4 aluop [1:0] $end
$var wire 32 5 alu_result [31:0] $end
$var wire 32 6 WB_mux5_writedata [31:0] $end
$var wire 1 7 MEM_WB_regwrite $end
$var wire 5 8 MEM_WB_rd [4:0] $end
$var wire 1 9 MEM_WB_memtoreg $end
$var wire 32 : IF_ID_npc [31:0] $end
$var wire 32 ; IF_ID_instr [31:0] $end
$var wire 1 < EX_MEM_PCSrc $end
$var wire 32 = EX_MEM_NPC [31:0] $end
$scope module EXECUTE1 $end
$var wire 1 ! zero $end
$var wire 2 > wb_ctlout [1:0] $end
$var wire 2 ? wb_ctl [1:0] $end
$var wire 32 @ s_extendout [31:0] $end
$var wire 1 % regdst $end
$var wire 32 A rdata2out [31:0] $end
$var wire 32 B rdata2 [31:0] $end
$var wire 32 C rdata1 [31:0] $end
$var wire 32 D npcout [31:0] $end
$var wire 5 E muxout [4:0] $end
$var wire 1 + memwrite $end
$var wire 1 , memread $end
$var wire 3 F m_ctl [2:0] $end
$var wire 5 G instrout_2016 [4:0] $end
$var wire 5 H instrout_1511 [4:0] $end
$var wire 5 I five_bit_muxout [4:0] $end
$var wire 3 J control [2:0] $end
$var wire 1 2 branch $end
$var wire 32 K b [31:0] $end
$var wire 1 L aluzero $end
$var wire 1 3 alusrc $end
$var wire 32 M aluout [31:0] $end
$var wire 2 N aluop [1:0] $end
$var wire 32 O alu_result [31:0] $end
$var wire 32 P adder_out [31:0] $end
$var wire 32 Q add_result [31:0] $end
$scope module add $end
$var wire 32 R add_out [31:0] $end
$var wire 32 S add_in2 [31:0] $end
$var wire 32 T add_in1 [31:0] $end
$upscope $end
$scope module alu $end
$var wire 1 U sign_mismatch $end
$var wire 1 L zero $end
$var wire 3 V control [2:0] $end
$var wire 32 W b [31:0] $end
$var wire 32 X a [31:0] $end
$var reg 32 Y result [31:0] $end
$upscope $end
$scope module alu_control $end
$var wire 6 Z funct [5:0] $end
$var wire 2 [ aluop [1:0] $end
$var reg 3 \ select [2:0] $end
$upscope $end
$scope module bottom_mux2 $end
$var wire 5 ] y [4:0] $end
$var wire 1 % sel $end
$var wire 5 ^ b [4:0] $end
$var wire 5 _ a [4:0] $end
$upscope $end
$scope module ex_mem $end
$var wire 32 ` adder_out [31:0] $end
$var wire 32 a aluout [31:0] $end
$var wire 1 L aluzero $end
$var wire 5 b muxout [4:0] $end
$var wire 32 c readdat2 [31:0] $end
$var wire 2 d ctlwb_out [1:0] $end
$var wire 3 e ctlm_out [2:0] $end
$var reg 32 f add_result [31:0] $end
$var reg 32 g alu_result [31:0] $end
$var reg 1 2 branch $end
$var reg 5 h five_bit_muxout [4:0] $end
$var reg 1 , memread $end
$var reg 1 + memwrite $end
$var reg 32 i rdata2out [31:0] $end
$var reg 2 j wb_ctlout [1:0] $end
$var reg 1 ! zero $end
$upscope $end
$scope module mux2 $end
$var wire 32 k y [31:0] $end
$var wire 1 3 sel $end
$var wire 32 l b [31:0] $end
$var wire 32 m a [31:0] $end
$upscope $end
$upscope $end
$scope module IDECODE1 $end
$var wire 2 n wb_ctlout [1:0] $end
$var wire 32 o signext_out [31:0] $end
$var wire 32 p s_extendout [31:0] $end
$var wire 1 % regdst $end
$var wire 32 q readdat2 [31:0] $end
$var wire 32 r readdat1 [31:0] $end
$var wire 32 s rdata2out [31:0] $end
$var wire 32 t rdata1out [31:0] $end
$var wire 32 u npcout [31:0] $end
$var wire 3 v m_ctlout [2:0] $end
$var wire 5 w instrout_2016 [4:0] $end
$var wire 5 x instrout_1511 [4:0] $end
$var wire 2 y ctlwb_out [1:0] $end
$var wire 3 z ctlm_out [2:0] $end
$var wire 4 { ctlex_out [3:0] $end
$var wire 1 3 alusrc $end
$var wire 2 | aluop [1:0] $end
$var wire 32 } WB_mux5_writedata [31:0] $end
$var wire 1 7 MEM_WB_regwrite $end
$var wire 5 ~ MEM_WB_rd [4:0] $end
$var wire 32 !" IF_ID_npcout [31:0] $end
$var wire 32 "" IF_ID_instrout [31:0] $end
$scope module control2 $end
$var wire 6 #" opcode [5:0] $end
$var reg 4 $" EX [3:0] $end
$var reg 3 %" M [2:0] $end
$var reg 2 &" WB [1:0] $end
$upscope $end
$scope module id_ex2 $end
$var wire 4 '" ctlex_out [3:0] $end
$var wire 3 (" ctlm_out [2:0] $end
$var wire 2 )" ctlwb_out [1:0] $end
$var wire 5 *" instr_1511 [4:0] $end
$var wire 5 +" instr_2016 [4:0] $end
$var wire 32 ," signext_out [31:0] $end
$var wire 32 -" readdat2 [31:0] $end
$var wire 32 ." readdat1 [31:0] $end
$var wire 32 /" npc [31:0] $end
$var reg 2 0" aluop [1:0] $end
$var reg 1 3 alusrc $end
$var reg 5 1" instrout_1511 [4:0] $end
$var reg 5 2" instrout_2016 [4:0] $end
$var reg 3 3" m_ctlout [2:0] $end
$var reg 32 4" npcout [31:0] $end
$var reg 32 5" rdata1out [31:0] $end
$var reg 32 6" rdata2out [31:0] $end
$var reg 1 % regdst $end
$var reg 32 7" s_extendout [31:0] $end
$var reg 2 8" wb_ctlout [1:0] $end
$upscope $end
$scope module register2 $end
$var wire 5 9" rs [4:0] $end
$var wire 5 :" rt [4:0] $end
$var wire 32 ;" writedata [31:0] $end
$var wire 1 7 regwrite $end
$var wire 5 <" rd [4:0] $end
$var reg 32 =" A [31:0] $end
$var reg 32 >" B [31:0] $end
$var integer 32 ?" i [31:0] $end
$upscope $end
$scope module s_extend2 $end
$var wire 16 @" nextend [15:0] $end
$var reg 32 A" extend [31:0] $end
$upscope $end
$upscope $end
$scope module MEMORY1 $end
$var wire 32 B" alu_result [31:0] $end
$var wire 1 2 branch $end
$var wire 5 C" five_bit_muxout [4:0] $end
$var wire 1 , memread $end
$var wire 1 + memwrite $end
$var wire 32 D" rdata2out [31:0] $end
$var wire 2 E" wb_ctlout [1:0] $end
$var wire 1 ! zero $end
$var wire 32 F" read_data_in [31:0] $end
$var wire 32 G" read_data [31:0] $end
$var wire 5 H" mem_write_reg [4:0] $end
$var wire 32 I" mem_alu_result [31:0] $end
$var wire 1 7 MEM_WB_regwrite $end
$var wire 1 9 MEM_WB_memtoreg $end
$var wire 1 < MEM_PCSrc $end
$scope module AND_4 $end
$var wire 1 < PCSrc $end
$var wire 1 2 membranch $end
$var wire 1 ! zero $end
$upscope $end
$scope module data_memory4 $end
$var wire 32 J" addr [31:0] $end
$var wire 1 , memread $end
$var wire 1 + memwrite $end
$var wire 32 K" write_data [31:0] $end
$var reg 32 L" read_data [31:0] $end
$var integer 32 M" i [31:0] $end
$upscope $end
$scope module mem_wb4 $end
$var wire 32 N" alu_result_in [31:0] $end
$var wire 2 O" control_wb_in [1:0] $end
$var wire 32 P" read_data_in [31:0] $end
$var wire 5 Q" write_reg_in [4:0] $end
$var reg 32 R" mem_alu_result [31:0] $end
$var reg 5 S" mem_write_reg [4:0] $end
$var reg 1 9 memtoreg $end
$var reg 32 T" read_data [31:0] $end
$var reg 1 7 regwrite $end
$upscope $end
$upscope $end
$scope module ifetch1 $end
$var wire 32 U" EX_MEM_NPC [31:0] $end
$var wire 1 < EX_MEM_PCSrc $end
$var wire 32 V" npc_mux [31:0] $end
$var wire 32 W" npc [31:0] $end
$var wire 32 X" dataout [31:0] $end
$var wire 32 Y" PC [31:0] $end
$var wire 32 Z" IF_ID_npc [31:0] $end
$var wire 32 [" IF_ID_instr [31:0] $end
$scope module if_id1 $end
$var wire 32 \" npc [31:0] $end
$var wire 32 ]" instr [31:0] $end
$var reg 32 ^" instrout [31:0] $end
$var reg 32 _" npcout [31:0] $end
$upscope $end
$scope module incrementer1 $end
$var wire 32 `" pcout [31:0] $end
$var wire 32 a" pcin [31:0] $end
$upscope $end
$scope module memory1 $end
$var wire 32 b" addr [31:0] $end
$var reg 32 c" data [31:0] $end
$upscope $end
$scope module mux1 $end
$var wire 32 d" a [31:0] $end
$var wire 32 e" b [31:0] $end
$var wire 1 < sel $end
$var wire 32 f" y [31:0] $end
$upscope $end
$scope module pc_mod1 $end
$var wire 32 g" npc [31:0] $end
$var reg 32 h" PC [31:0] $end
$upscope $end
$upscope $end
$scope module writeback1 $end
$var wire 1 9 MEM_WB_memtoreg $end
$var wire 32 i" mem_alu_result [31:0] $end
$var wire 32 j" read_data [31:0] $end
$var wire 32 k" WB_mux_writedata [31:0] $end
$scope module mux3 $end
$var wire 32 l" a [31:0] $end
$var wire 32 m" b [31:0] $end
$var wire 1 9 sel $end
$var wire 32 n" y [31:0] $end
$upscope $end
$upscope $end
$upscope $end
$enddefinitions $end
#0
$dumpvars
b0 n"
b0 m"
b0 l"
b0 k"
b0 j"
b0 i"
b0 h"
b1 g"
b1 f"
b1 e"
b0 d"
b1000110000000010101010 c"
b0 b"
b0 a"
b1 `"
b0 _"
b0 ^"
b1000110000000010101010 ]"
b1 \"
b0 ["
b0 Z"
b0 Y"
b1000110000000010101010 X"
b1 W"
b1 V"
b0 U"
b0 T"
b0 S"
b0 R"
b0 Q"
b0 P"
b0 O"
b0 N"
b1010 M"
b0 L"
b0 K"
b0 J"
b0 I"
b0 H"
b0 G"
b0 F"
b0 E"
b0 D"
b0 C"
b0 B"
b0 A"
b0 @"
b1001 ?"
b0 >"
b0 ="
b0 <"
b0 ;"
b0 :"
b0 9"
b0 8"
b0 7"
b0 6"
b0 5"
b0 4"
b0 3"
b0 2"
b0 1"
b0 0"
b0 /"
b0 ."
b0 -"
b0 ,"
b0 +"
b0 *"
b10 )"
b0 ("
b1100 '"
b10 &"
b0 %"
b1100 $"
b0 #"
b0 ""
b0 !"
b0 ~
b0 }
b0 |
b1100 {
b0 z
b10 y
b0 x
b0 w
b0 v
b0 u
b0 t
b0 s
b0 r
b0 q
b0 p
b0 o
b0 n
b0 m
b0 l
b0 k
b0 j
b0 i
b0 h
b0 g
b0 f
b0 e
b0 d
b0 c
b0 b
b0 a
b0 `
b0 _
b0 ^
b0 ]
b10 \
b0 [
b0 Z
b0 Y
b0 X
b0 W
b10 V
0U
b0 T
b0 S
b0 R
b0 Q
b0 P
b0 O
b0 N
b0 M
1L
b0 K
b10 J
b0 I
b0 H
b0 G
b0 F
b0 E
b0 D
b0 C
b0 B
b0 A
b0 @
b0 ?
b0 >
b0 =
0<
b0 ;
b0 :
09
b0 8
07
b0 6
b0 5
b0 4
03
02
b0 1
b0 0
b0 /
b0 .
b0 -
0,
0+
b0 *
b0 )
b0 (
b0 '
b0 &
0%
b0 $
b0 #
b0 "
0!
$end
#1000
xL
bx M
bx Y
bx a
b10101010 o
b10101010 ,"
b10101010 A"
b10000011001010100001100100001 X"
b10000011001010100001100100001 ]"
b10000011001010100001100100001 c"
b11 J
b11 V
b11 \
b10 V"
b10 f"
b10 g"
b11 +"
b10101010 @"
b11 :"
b1 9"
b10 W"
b10 \"
b10 `"
b10 e"
b1 Y"
b1 a"
b1 b"
b1 h"
b10 4
b10 N
b10 [
b10 |
b10 0"
1%
b10 #
b10 ?
b10 d
b10 n
b10 8"
b1 :
b1 !"
b1 /"
b1 Z"
b1 _"
b1000110000000010101010 ;
b1000110000000010101010 ""
b1000110000000010101010 ["
b1000110000000010101010 ^"
1!
#2000
1L
b0 M
b0 Y
b0 a
b100001100100001 o
b100001100100001 ,"
b100001100100001 A"
b0z y
b0z &"
b0z )"
b100 z
b100 %"
b100 ("
bz010 {
bz010 $"
bz010 '"
b111 J
b111 V
b111 \
b100000000000000100010 X"
b100000000000000100010 ]"
b100000000000000100010 c"
b11 V"
b11 f"
b11 g"
b1000 *"
b101 +"
b100001100100001 @"
b101 :"
b11 9"
b100 #"
b101010 Z
b11 W"
b11 \"
b11 `"
b11 e"
b10 Y"
b10 a"
b10 b"
b10 h"
b10 :
b10 !"
b10 /"
b10 Z"
b10 _"
b10000011001010100001100100001 ;
b10000011001010100001100100001 ""
b10000011001010100001100100001 ["
b10000011001010100001100100001 ^"
bx 5
bx O
bx g
bx B"
bx J"
bx N"
x!
b10 "
b10 >
b10 j
b10 E"
b10 O"
b11 /
b11 G
b11 ^
b11 w
b11 2"
b10101010 $
b10101010 @
b10101010 S
b10101010 m
b10101010 p
b10101010 7"
b10101011 P
b10101011 R
b10101011 `
b1 *
b1 D
b1 T
b1 u
b1 4"
#3000
b100010 o
b100010 ,"
b100010 A"
b10 y
b10 &"
b10 )"
b0 z
b0 %"
b0 ("
b1100 {
b1100 $"
b1100 '"
b10001100000100100011010001010110 X"
b10001100000100100011010001010110 ]"
b10001100000100100011010001010110 c"
b110 J
b110 V
b110 \
b100 V"
b100 f"
b100 g"
b0 *"
b10000 +"
b100010 @"
b10000 :"
b0 9"
b0 #"
b100001 Z
b0xx0x E
b0xx0x ]
b0xx0x b
bx 6
bx }
bx ;"
bx k"
bx n"
b100 W"
b100 \"
b100 `"
b100 e"
b11 Y"
b11 a"
b11 b"
b11 h"
b11 :
b11 !"
b11 /"
b11 Z"
b11 _"
b100000000000000100010 ;
b100000000000000100010 ""
b100000000000000100010 ["
b100000000000000100010 ^"
b1000 0
b1000 H
b1000 _
b1000 x
b1000 1"
b101 /
b101 G
b101 ^
b101 w
b101 2"
b100001100100001 $
b100001100100001 @
b100001100100001 S
b100001100100001 m
b100001100100001 p
b100001100100001 7"
b100001100100011 P
b100001100100011 R
b100001100100011 `
b10 *
b10 D
b10 T
b10 u
b10 4"
b1 4
b1 N
b1 [
b1 |
b1 0"
z%
b100 .
b100 F
b100 e
b100 v
b100 3"
b0z #
b0z ?
b0z d
b0z n
b0z 8"
bx -
bx I"
bx R"
bx i"
bx m"
17
b0 5
b0 O
b0 g
b0 B"
b0 J"
b0 N"
1!
b10101011 =
b10101011 Q
b10101011 f
b10101011 U"
b10101011 d"
#4000
b11010001010110 o
b11010001010110 ,"
b11010001010110 A"
b11 y
b11 &"
b11 )"
b10 z
b10 %"
b10 ("
b1 {
b1 $"
b1 '"
b10001111000100100011010001010110 X"
b10001111000100100011010001010110 ]"
b10001111000100100011010001010110 c"
b110 J
b110 V
b110 \
b101 V"
b101 f"
b101 g"
b110 *"
b10010 +"
b11010001010110 @"
b10010 :"
b100011 #"
b100010 Z
b0 E
b0 ]
b0 b
b0 6
b0 }
b0 ;"
b0 k"
b0 n"
b101 W"
b101 \"
b101 `"
b101 e"
b100 Y"
b100 a"
b100 b"
b100 h"
b100 :
b100 !"
b100 /"
b100 Z"
b100 _"
b10001100000100100011010001010110 ;
b10001100000100100011010001010110 ""
b10001100000100100011010001010110 ["
b10001100000100100011010001010110 ^"
b0 0
b0 H
b0 _
b0 x
b0 1"
b10000 /
b10000 G
b10000 ^
b10000 w
b10000 2"
b100010 $
b100010 @
b100010 S
b100010 m
b100010 p
b100010 7"
b100101 P
b100101 R
b100101 `
b11 *
b11 D
b11 T
b11 u
b11 4"
b10 4
b10 N
b10 [
b10 |
b10 0"
1%
b0 .
b0 F
b0 e
b0 v
b0 3"
b10 #
b10 ?
b10 d
b10 n
b10 8"
b0xx0x 1
b0xx0x I
b0xx0x h
b0xx0x C"
b0xx0x Q"
b100001100100011 =
b100001100100011 Q
b100001100100011 f
b100001100100011 U"
b100001100100011 d"
1+
b0z "
b0z >
b0z j
b0z E"
b0z O"
b0 -
b0 I"
b0 R"
b0 i"
b0 m"
#5000
b10101101011001010100001100100001 X"
b10101101011001010100001100100001 ]"
b10101101011001010100001100100001 c"
b10 J
b10 V
b10 \
0L
b11010001010110 M
b11010001010110 Y
b11010001010110 a
b110 V"
b110 f"
b110 g"
b11000 9"
b10110 Z
b11010001010110 K
b11010001010110 W
b11010001010110 k
b10010 E
b10010 ]
b10010 b
b110 W"
b110 \"
b110 `"
b110 e"
b101 Y"
b101 a"
b101 b"
b101 h"
b101 :
b101 !"
b101 /"
b101 Z"
b101 _"
b10001111000100100011010001010110 ;
b10001111000100100011010001010110 ""
b10001111000100100011010001010110 ["
b10001111000100100011010001010110 ^"
b110 0
b110 H
b110 _
b110 x
b110 1"
b10010 /
b10010 G
b10010 ^
b10010 w
b10010 2"
b11010001010110 $
b11010001010110 @
b11010001010110 S
b11010001010110 m
b11010001010110 p
b11010001010110 7"
b11010001011010 P
b11010001011010 R
b11010001011010 `
b100 *
b100 D
b100 T
b100 u
b100 4"
13
b0 4
b0 N
b0 [
b0 |
b0 0"
0%
b10 .
b10 F
b10 e
b10 v
b10 3"
b11 #
b11 ?
b11 d
b11 n
b11 8"
b0 1
b0 I
b0 h
b0 C"
b0 Q"
b100101 =
b100101 Q
b100101 f
b100101 U"
b100101 d"
0+
b10 "
b10 >
b10 j
b10 E"
b10 O"
b0xx0x 8
b0xx0x ~
b0xx0x <"
b0xx0x H"
b0xx0x S"
z9
07
#6000
b100001100100001 o
b100001100100001 ,"
b100001100100001 A"
b0z y
b0z &"
b0z )"
b1 z
b1 %"
b1 ("
bz001 {
bz001 $"
bz001 '"
b10011000000010010001101000101 X"
b10011000000010010001101000101 ]"
b10011000000010010001101000101 c"
bx F"
bx L"
bx P"
b111 V"
b111 f"
b111 g"
b1000 *"
b101 +"
b100001100100001 @"
b101 :"
b1011 9"
b101011 #"
b111 W"
b111 \"
b111 `"
b111 e"
b110 Y"
b110 a"
b110 b"
b110 h"
b110 :
b110 !"
b110 /"
b110 Z"
b110 _"
b10101101011001010100001100100001 ;
b10101101011001010100001100100001 ""
b10101101011001010100001100100001 ["
b10101101011001010100001100100001 ^"
b11010001011011 P
b11010001011011 R
b11010001011011 `
b101 *
b101 D
b101 T
b101 u
b101 4"
b10010 1
b10010 I
b10010 h
b10010 C"
b10010 Q"
b11010001010110 5
b11010001010110 O
b11010001010110 g
b11010001010110 B"
b11010001010110 J"
b11010001010110 N"
0!
b11010001011010 =
b11010001011010 Q
b11010001011010 f
b11010001011010 U"
b11010001011010 d"
1,
b11 "
b11 >
b11 j
b11 E"
b11 O"
b0 8
b0 ~
b0 <"
b0 H"
b0 S"
09
17
#7000
b10001101000101 o
b10001101000101 ,"
b10001101000101 A"
b100 z
b100 %"
b100 ("
bz010 {
bz010 $"
bz010 '"
b10101100011001010100001100100001 X"
b10101100011001010100001100100001 ]"
b10101100011001010100001100100001 c"
b100001100100001 M
b100001100100001 Y
b100001100100001 a
b1000 V"
b1000 f"
b1000 g"
b100 *"
b1 +"
b10001101000101 @"
b1 :"
b11000 9"
b100 #"
b100001100100001 K
b100001100100001 W
b100001100100001 k
b100001 Z
b0xx0x E
b0xx0x ]
b0xx0x b
bx 6
bx }
bx ;"
bx k"
bx n"
b1000 W"
b1000 \"
b1000 `"
b1000 e"
b111 Y"
b111 a"
b111 b"
b111 h"
b111 :
b111 !"
b111 /"
b111 Z"
b111 _"
b10011000000010010001101000101 ;
b10011000000010010001101000101 ""
b10011000000010010001101000101 ["
b10011000000010010001101000101 ^"
b1000 0
b1000 H
b1000 _
b1000 x
b1000 1"
b101 /
b101 G
b101 ^
b101 w
b101 2"
b100001100100001 $
b100001100100001 @
b100001100100001 S
b100001100100001 m
b100001100100001 p
b100001100100001 7"
b100001100100111 P
b100001100100111 R
b100001100100111 `
b110 *
b110 D
b110 T
b110 u
b110 4"
z%
b1 .
b1 F
b1 e
b1 v
b1 3"
b0z #
b0z ?
b0z d
b0z n
b0z 8"
b11010001011011 =
b11010001011011 Q
b11010001011011 f
b11010001011011 U"
b11010001011011 d"
b10010 8
b10010 ~
b10010 <"
b10010 H"
b10010 S"
b11010001010110 -
b11010001010110 I"
b11010001010110 R"
b11010001010110 i"
b11010001010110 m"
bx &
bx G"
bx T"
bx j"
bx l"
19
#8000
b100001100100001 o
b100001100100001 ,"
b100001100100001 A"
b1 z
b1 %"
b1 ("
bz001 {
bz001 $"
bz001 '"
b10010000000010010001101000101 X"
b10010000000010010001101000101 ]"
b10010000000010010001101000101 c"
b110 J
b110 V
b110 \
1L
b0 M
b0 Y
b0 a
b1001 V"
b1001 f"
b1001 g"
b1000 *"
b101 +"
b100001100100001 @"
b101 :"
b11 9"
b101011 #"
b0x0x E
b0x0x ]
b0x0x b
b101 Z
b0 K
b0 W
b0 k
b1001 W"
b1001 \"
b1001 `"
b1001 e"
b1000 Y"
b1000 a"
b1000 b"
b1000 h"
b1000 :
b1000 !"
b1000 /"
b1000 Z"
b1000 _"
b10101100011001010100001100100001 ;
b10101100011001010100001100100001 ""
b10101100011001010100001100100001 ["
b10101100011001010100001100100001 ^"
b100 0
b100 H
b100 _
b100 x
b100 1"
b1 /
b1 G
b1 ^
b1 w
b1 2"
b10001101000101 $
b10001101000101 @
b10001101000101 S
b10001101000101 m
b10001101000101 p
b10001101000101 7"
b10001101001100 P
b10001101001100 R
b10001101001100 `
b111 *
b111 D
b111 T
b111 u
b111 4"
03
b1 4
b1 N
b1 [
b1 |
b1 0"
b100 .
b100 F
b100 e
b100 v
b100 3"
b0xx0x 1
b0xx0x I
b0xx0x h
b0xx0x C"
b0xx0x Q"
b100001100100001 5
b100001100100001 O
b100001100100001 g
b100001100100001 B"
b100001100100001 J"
b100001100100001 N"
b100001100100111 =
b100001100100111 Q
b100001100100111 f
b100001100100111 U"
b100001100100111 d"
0,
12
b0z "
b0z >
b0z j
b0z E"
b0z O"
#9000
b10001101000101 o
b10001101000101 ,"
b10001101000101 A"
b100 z
b100 %"
b100 ("
bz010 {
bz010 $"
bz010 '"
bx X"
bx ]"
bx c"
b10 J
b10 V
b10 \
0L
b100001100100001 M
b100001100100001 Y
b100001100100001 a
b1010 V"
b1010 f"
b1010 g"
b100 *"
b1 +"
b10001101000101 @"
b1 :"
b10000 9"
b100 #"
b0xx0x E
b0xx0x ]
b0xx0x b
b100001 Z
b100001100100001 K
b100001100100001 W
b100001100100001 k
b1010 W"
b1010 \"
b1010 `"
b1010 e"
b1001 Y"
b1001 a"
b1001 b"
b1001 h"
b1001 :
b1001 !"
b1001 /"
b1001 Z"
b1001 _"
b10010000000010010001101000101 ;
b10010000000010010001101000101 ""
b10010000000010010001101000101 ["
b10010000000010010001101000101 ^"
b1000 0
b1000 H
b1000 _
b1000 x
b1000 1"
b101 /
b101 G
b101 ^
b101 w
b101 2"
b100001100100001 $
b100001100100001 @
b100001100100001 S
b100001100100001 m
b100001100100001 p
b100001100100001 7"
b100001100101001 P
b100001100101001 R
b100001100101001 `
b1000 *
b1000 D
b1000 T
b1000 u
b1000 4"
13
b0 4
b0 N
b0 [
b0 |
b0 0"
b1 .
b1 F
b1 e
b1 v
b1 3"
b0x0x 1
b0x0x I
b0x0x h
b0x0x C"
b0x0x Q"
b0 5
b0 O
b0 g
b0 B"
b0 J"
b0 N"
1!
b10001101001100 =
b10001101001100 Q
b10001101001100 f
b10001101001100 U"
b10001101001100 d"
1+
02
b0xx0x 8
b0xx0x ~
b0xx0x <"
b0xx0x H"
b0xx0x S"
b100001100100001 -
b100001100100001 I"
b100001100100001 R"
b100001100100001 i"
b100001100100001 m"
z9
07
#10000
bx o
bx ,"
bx A"
bx q
bx -"
bx >"
bx r
bx ."
bx ="
b110 J
b110 V
b110 \
1L
b0 M
b0 Y
b0 a
b1011 V"
b1011 f"
b1011 g"
bx *"
bx +"
bx @"
bx :"
bx 9"
bx #"
b0x0x E
b0x0x ]
b0x0x b
b101 Z
b0 K
b0 W
b0 k
b1011 W"
b1011 \"
b1011 `"
b1011 e"
b1010 Y"
b1010 a"
b1010 b"
b1010 h"
b1010 :
b1010 !"
b1010 /"
b1010 Z"
b1010 _"
bx ;
bx ""
bx ["
bx ^"
b100 0
b100 H
b100 _
b100 x
b100 1"
b1 /
b1 G
b1 ^
b1 w
b1 2"
b10001101000101 $
b10001101000101 @
b10001101000101 S
b10001101000101 m
b10001101000101 p
b10001101000101 7"
b10001101001110 P
b10001101001110 R
b10001101001110 `
b1001 *
b1001 D
b1001 T
b1001 u
b1001 4"
03
b1 4
b1 N
b1 [
b1 |
b1 0"
b100 .
b100 F
b100 e
b100 v
b100 3"
b0xx0x 1
b0xx0x I
b0xx0x h
b0xx0x C"
b0xx0x Q"
b100001100100001 5
b100001100100001 O
b100001100100001 g
b100001100100001 B"
b100001100100001 J"
b100001100100001 N"
0!
b100001100101001 =
b100001100101001 Q
b100001100101001 f
b100001100101001 U"
b100001100101001 d"
0+
12
b0x0x 8
b0x0x ~
b0x0x <"
b0x0x H"
b0x0x S"
b0 -
b0 I"
b0 R"
b0 i"
b0 m"
#11000
xL
xU
b1100 V"
b1100 f"
b1100 g"
bx E
bx ]
bx b
bx Z
bx K
bx W
bx k
bx M
bx Y
bx a
b1100 W"
b1100 \"
b1100 `"
b1100 e"
b1011 Y"
b1011 a"
b1011 b"
b1011 h"
b1011 :
b1011 !"
b1011 /"
b1011 Z"
b1011 _"
bx 0
bx H
bx _
bx x
bx 1"
bx /
bx G
bx ^
bx w
bx 2"
bx $
bx @
bx S
bx m
bx p
bx 7"
bx (
bx B
bx c
bx l
bx s
bx 6"
bx )
bx C
bx X
bx t
bx 5"
bx P
bx R
bx `
b1010 *
b1010 D
b1010 T
b1010 u
b1010 4"
b0x0x 1
b0x0x I
b0x0x h
b0x0x C"
b0x0x Q"
b0 5
b0 O
b0 g
b0 B"
b0 J"
b0 N"
1!
b10001101001110 =
b10001101001110 Q
b10001101001110 f
b10001101001110 U"
b10001101001110 d"
1+
02
b0xx0x 8
b0xx0x ~
b0xx0x <"
b0xx0x H"
b0xx0x S"
b100001100100001 -
b100001100100001 I"
b100001100100001 R"
b100001100100001 i"
b100001100100001 m"
#12000
b1101 V"
b1101 f"
b1101 g"
b1101 W"
b1101 \"
b1101 `"
b1101 e"
b1100 Y"
b1100 a"
b1100 b"
b1100 h"
b1100 :
b1100 !"
b1100 /"
b1100 Z"
b1100 _"
b1011 *
b1011 D
b1011 T
b1011 u
b1011 4"
bx 1
bx I
bx h
bx C"
bx Q"
bx '
bx A
bx i
bx D"
bx K"
bx 5
bx O
bx g
bx B"
bx J"
bx N"
x!
bx =
bx Q
bx f
bx U"
bx d"
b0x0x 8
b0x0x ~
b0x0x <"
b0x0x H"
b0x0x S"
b0 -
b0 I"
b0 R"
b0 i"
b0 m"
#13000
b1110 V"
b1110 f"
b1110 g"
b1110 W"
b1110 \"
b1110 `"
b1110 e"
b1101 Y"
b1101 a"
b1101 b"
b1101 h"
b1101 :
b1101 !"
b1101 /"
b1101 Z"
b1101 _"
b1100 *
b1100 D
b1100 T
b1100 u
b1100 4"
bx 8
bx ~
bx <"
bx H"
bx S"
bx -
bx I"
bx R"
bx i"
bx m"
#14000
b1111 V"
b1111 f"
b1111 g"
b1111 W"
b1111 \"
b1111 `"
b1111 e"
b1110 Y"
b1110 a"
b1110 b"
b1110 h"
b1110 :
b1110 !"
b1110 /"
b1110 Z"
b1110 _"
b1101 *
b1101 D
b1101 T
b1101 u
b1101 4"
#15000
b10000 V"
b10000 f"
b10000 g"
b10000 W"
b10000 \"
b10000 `"
b10000 e"
b1111 Y"
b1111 a"
b1111 b"
b1111 h"
b1111 :
b1111 !"
b1111 /"
b1111 Z"
b1111 _"
b1110 *
b1110 D
b1110 T
b1110 u
b1110 4"
#16000
b10001 V"
b10001 f"
b10001 g"
b10001 W"
b10001 \"
b10001 `"
b10001 e"
b10000 Y"
b10000 a"
b10000 b"
b10000 h"
b10000 :
b10000 !"
b10000 /"
b10000 Z"
b10000 _"
b1111 *
b1111 D
b1111 T
b1111 u
b1111 4"
#17000
b10010 V"
b10010 f"
b10010 g"
b10010 W"
b10010 \"
b10010 `"
b10010 e"
b10001 Y"
b10001 a"
b10001 b"
b10001 h"
b10001 :
b10001 !"
b10001 /"
b10001 Z"
b10001 _"
b10000 *
b10000 D
b10000 T
b10000 u
b10000 4"
#18000
b10011 V"
b10011 f"
b10011 g"
b10011 W"
b10011 \"
b10011 `"
b10011 e"
b10010 Y"
b10010 a"
b10010 b"
b10010 h"
b10010 :
b10010 !"
b10010 /"
b10010 Z"
b10010 _"
b10001 *
b10001 D
b10001 T
b10001 u
b10001 4"
#19000
b10100 V"
b10100 f"
b10100 g"
b10100 W"
b10100 \"
b10100 `"
b10100 e"
b10011 Y"
b10011 a"
b10011 b"
b10011 h"
b10011 :
b10011 !"
b10011 /"
b10011 Z"
b10011 _"
b10010 *
b10010 D
b10010 T
b10010 u
b10010 4"
#20000
b10101 V"
b10101 f"
b10101 g"
b10101 W"
b10101 \"
b10101 `"
b10101 e"
b10100 Y"
b10100 a"
b10100 b"
b10100 h"
b10100 :
b10100 !"
b10100 /"
b10100 Z"
b10100 _"
b10011 *
b10011 D
b10011 T
b10011 u
b10011 4"
